Cleaning
…
Cleaning clubs

There are times when club abbreviations vary. We will fix those here.

Checking them:

dip_data |> 
  count(club_short)

# A tibble: 30 × 2
   club_short     n
   <chr>      <int>
 1 ATL           34
 2 CHI          306
 3 CHV          233
 4 CLB          311
 5 COL          308
 6 DAL          322
 7 DC           309
 8 HOU          293
 9 KC           304
10 LA           315
# ℹ 20 more rows
…
Checking the changes to make sure they are right.

dip_changed |> 
  count(club_short, club_short_clean)

# A tibble: 30 × 3
   club_short club_short_clean     n
   <chr>      <chr>            <int>
 1 ATL        ATL                 34
 2 CHI        CHI                306
 3 CHV        CHV                233
 4 CLB        CLB                311
 5 COL        COL                308
 6 DAL        DAL                322
 7 DC         DC                 309
 8 HOU        HOU                293
 9 KC         KC                 304
10 LA         LA                 315
# ℹ 20 more rows
…
Rows: 694 Columns: 8
── Column specification ────────────────────────────────────────────────────────
Delimiter: ","
chr (6): club_long, last_name, first_name, position, currency_1, currency_2
num (2): base_salary, guaranteed_compensation

ℹ Use `spec()` to retrieve the full column specification for this data.
ℹ Specify the column types or set `show_col_types = FALSE` to quiet this message.

s2018_imported

# A tibble: 694 × 7
   year  club_long          last_name    first_name position base_salary
   <chr> <chr>              <chr>        <chr>      <chr>          <dbl>
 1 2018  New York Red Bulls Abang        Anatole    F             68927 
 2 2018  New York City FC   Abdul-Salaam Saad       D            106480 
 3 2018  Columbus Crew      Abu          Mohammed   M            175008 
 4 2018  Columbus Crew      Abubakar     Lalas      D             68250.
 5 2018  Philadelphia Union Accam        David      F-M         1250000.
 6 2018  Colorado Rapids    Acosta       Kellyn     M            280000 
 7 2018  DC United          Acosta       Luciano    F-M          550000 
 8 2018  Real Salt Lake     Acosta       Danilo     M            100000 
 9 2018  Chicago Fire       Adams        Mohammed   M             90000 
10 2018  New York Red Bulls Adams        Tyler      M            100000 
# ℹ 684 more rows
# ℹ 1 more variable: guaranteed_compensation <dbl>
…
Cleaning non-dip data

Checking the names for errors.

non_dip_data |> 
  count(club_long)

# A tibble: 34 × 2
   club_long           n
   <chr>           <int>
 1 Atlanta United    195
 2 Austin FC          92
 3 Charlotte FC       67
 4 Chicago Fire      175
 5 Colorado Rapids   185
 6 Columbus Crew     173
 7 DC United         174
 8 FC Cincinnati     154
 9 FC Dallas         187
10 Houston Dynamo    184
# ℹ 24 more rows
…
non_dip_changed <- non_dip_data |> 
  mutate(
    club_long_changed = recode(
      club_long,
      "Montreal" = "CF Montreal",
      "New England Revolutio" = "New England Revolution",
      "DC United" = "D.C. United"
    )
  )

non_dip_changed  |> 
  count(club_long_changed, club_long)

# A tibble: 34 × 3
   club_long_changed club_long           n
   <chr>             <chr>           <int>
 1 Atlanta United    Atlanta United    195
 2 Austin FC         Austin FC          92
 3 CF Montreal       Montreal           98
 4 Charlotte FC      Charlotte FC       67
 5 Chicago Fire      Chicago Fire      175
 6 Colorado Rapids   Colorado Rapids   185
 7 Columbus Crew     Columbus Crew     173
 8 D.C. United       DC United         174
 9 FC Cincinnati     FC Cincinnati     154
10 FC Dallas         FC Dallas         187
# ℹ 24 more rows
…
Rows: 379 Columns: 4
── Column specification ────────────────────────────────────────────────────────
Delimiter: ","
chr (3): club_short, club_long, conference
dbl (1): year

ℹ Use `spec()` to retrieve the full column specification for this data.
ℹ Specify the column types or set `show_col_types = FALSE` to quiet this message.

clubs_list |> 
  count(club_short, club_long)

# A tibble: 34 × 3
   club_short club_long           n
   <chr>      <chr>           <int>
 1 ATL        Atlanta United      8
 2 AUS        Austin FC           4
 3 CCH        Charlotte FC        3
 4 CHI        Chicago Fire       17
 5 CHV        Chivas USA          8
 6 CIN        FC Cincinnati       6
 7 CLB        Columbus Crew      17
 8 COL        Colorado Rapids    17
 9 DAL        FC Dallas          17
10 DC         D.C. United        17
# ℹ 24 more rows

Fill in our dip

dip data doesn’t have club_long. We’ll join with our master clubs list to get them.

dip_full <- dip_cleaned |> 
  left_join(clubs_list, join_by(year == year, club_short == club_short))

dip_full |> 
  filter(is.na(club_long))

# A tibble: 23 × 9
   year  club_short last_name   first_name position base_salary
   <chr> <chr>      <chr>       <chr>      <chr>          <dbl>
 1 2010  <NA>       Goldthwaite Kevin      D             120000
 2 2010  <NA>       Waibel      Craig      D              84710
 3 2010  <NA>       Wolyniec    John       F              88000
 4 2012  <NA>       Sassano     Luke       M-D            81000
 5 2012  <NA>       White       Jeremiah   M              44004
 6 2013  <NA>       Araujo Jr.  Paulo      F              60000
 7 2013  <NA>       Dunfield    Terry      M             120000
 8 2013  <NA>       Muniz       Nico       M              46500
 9 2014  <NA>       Borja       Carlos     D              52313
10 2014  <NA>       Gardner     Joshua     M              70000
# ℹ 13 more rows
# ℹ 3 more variables: guaranteed_compensation <dbl>, club_long <chr>,
#   conference <chr>
